{
  "user_id": 2,
  "route_id": 1,
  "route_name": "В поисках жемчужины Якса",
  "route_level": 1,
  "route_description": "",
  "master_instruction": "string",
  "points": [
    {
      "seq_id": 1,
      "geo_id": 2,
      "message": "Вы на развилке дороги. Выберите дальнейший маршрут.",
      "point_type": "NECESSARY"
    },
    {
      "seq_id": 2,
      "geo_id": 3,
      "message": "Перед вами трактир. Поговорите с капитаном Файнусом.",
      "point_type": "NECESSARY"
    },
    {
      "seq_id": 3,
      "geo_id": 4,
      "message": "Найдите Книгу Пророчеств возле лагеря на перевале.",
      "point_type": "NECESSARY"
    },
    {
      "seq_id": 4,
      "geo_id": 5,
      "message": "Поговорите с Майрусом после выполнения задания.",
      "point_type": "NECESSARY"
    },
    {
      "seq_id": 5,
      "geo_id": 5,
      "message": "Впереди отряд наемников. Готовьтесь к бою.",
      "point_type": "OPTIONAL"
    },
    {
      "seq_id": 6,
      "geo_id": 7,
      "message": "Здесь находится источник силы.",
      "point_type": "OPTIONAL"
    },
    {
      "seq_id": 7,
      "geo_id": 8,
      "message": "Жителям этой деревни нужна помощь. У вас есть выбор.",
      "point_type": "HIDDEN"
    },
    {
      "seq_id": 8,
      "geo_id": 9,
      "message": "Поговорите с верховным жрецом.",
      "point_type": "NECESSARY"
    },
    {
      "seq_id": 9,
      "geo_id": 1,
      "message": "Поговорите с Кризом из Дома Призрачных Лун.",
      "point_type": "NECESSARY"
    },
    {
      "seq_id": 10,
      "geo_id": 10,
      "message": "Прочтите каменную табличку и следуйте указаниям.",
      "point_type": "NECESSARY"
    },
    {
      "seq_id": 11,
      "geo_id": 11,
      "message": "Ваш путь приближается к завершению.",
      "point_type": "NECESSARY"
    },
    {
      "seq_id": 12,
      "geo_id": 12,
      "message": "Вы выполнили миссию.",
      "point_type": "NECESSARY"
    }
  ],
  "map_visible": true,
  "route_visible": true,
  "ordered": true,
  "last_update": "2020-05-17T19:57:00+03:00"
}